<?xml version="1.0" encoding="UTF-8" standalone="no"?>
<!-- Created with Inkscape (http://www.inkscape.org/) -->

<svg
   xmlns:dc="http://purl.org/dc/elements/1.1/"
   xmlns:cc="http://creativecommons.org/ns#"
   xmlns:rdf="http://www.w3.org/1999/02/22-rdf-syntax-ns#"
   xmlns:svg="http://www.w3.org/2000/svg"
   xmlns="http://www.w3.org/2000/svg"
   xmlns:sodipodi="http://sodipodi.sourceforge.net/DTD/sodipodi-0.dtd"
   xmlns:inkscape="http://www.inkscape.org/namespaces/inkscape"
   width="46"
   height="50"
   viewBox="0 0 12.170834 13.22917"
   version="1.1"
   id="svg8"
   inkscape:version="0.92.5 (2060ec1f9f, 2020-04-08)"
   sodipodi:docname="dyk-logo.svg">
  <defs
     id="defs2" />
  <sodipodi:namedview
     id="base"
     pagecolor="#000000"
     bordercolor="#666666"
     borderopacity="1.0"
     inkscape:pageopacity="0"
     inkscape:pageshadow="2"
     inkscape:zoom="45.254836"
     inkscape:cx="23.018006"
     inkscape:cy="23.339287"
     inkscape:document-units="px"
     inkscape:current-layer="g2294"
     showgrid="false"
     units="px"
     inkscape:window-width="1920"
     inkscape:window-height="1016"
     inkscape:window-x="0"
     inkscape:window-y="27"
     inkscape:window-maximized="1"
     showguides="true"
     inkscape:guide-bbox="true" />
  <metadata
     id="metadata5">
    <rdf:RDF>
      <cc:Work
         rdf:about="">
        <dc:format>image/svg+xml</dc:format>
        <dc:type
           rdf:resource="http://purl.org/dc/dcmitype/StillImage" />
        <dc:title />
      </cc:Work>
    </rdf:RDF>
  </metadata>
  <g
     inkscape:groupmode="layer"
     id="layer3"
     inkscape:label="icon-bgs"
     style="display:inline">
    <path
       style="display:inline;fill:#ffffff;fill-rule:evenodd;stroke-width:0.36652952"
       id="path2465"
       sodipodi:type="arc"
       sodipodi:cx="-288.20032"
       sodipodi:cy="-77.573509"
       sodipodi:rx="2.8662066"
       sodipodi:ry="2.7202952"
       sodipodi:start="0"
       sodipodi:end="3.152193"
       sodipodi:open="true"
       d="m -285.33411,-77.573509 a 2.8662066,2.7202952 0 0 1 -1.44188,2.360636 2.8662066,2.7202952 0 0 1 -2.87494,-0.01446 2.8662066,2.7202952 0 0 1 -1.41543,-2.37501"
       transform="matrix(-0.2857906,-0.95829209,0.98336568,-0.18163693,0,-283.77085)" />
  </g>
  <g
     inkscape:groupmode="layer"
     id="layer2"
     inkscape:label="bg"
     style="display:inline"
     transform="translate(0,-39.687503)" />
  <g
     inkscape:label="Layer 1"
     inkscape:groupmode="layer"
     id="layer1"
     transform="translate(0,-283.77086)"
     style="display:inline">
    <path
       style="fill:#ff0000;fill-opacity:1;stroke:#f60000;stroke-width:0.02645834;stroke-linecap:round;stroke-linejoin:round;stroke-miterlimit:4;stroke-dasharray:none;stroke-opacity:1"
       d="m 6.6241092,291.69723 0.1011639,-0.0152 c 0.1027101,-0.065 0.2074666,-0.0454 0.3080924,-0.0464 l 0.1315466,-0.076 0.061389,-0.0205 0.3654074,-0.30987 0.076005,-0.076 c 0,0 -0.00585,-0.0497 -0.00585,-0.0614 0,-0.0117 0.053475,-0.17814 0.053475,-0.17814 -0.059502,-0.0223 -0.077664,-0.14788 0.039567,-0.14637 0.049746,-0.0334 0.047816,-0.21146 0.053121,-0.342 0.1138211,-0.0677 0.050123,-0.18111 0.017539,-0.45602 l -0.00585,-0.19002 c 0,0 0.019458,-0.0519 0.055542,0.009 0.014233,0.0791 0.024331,0.13122 0.025128,0.23404 0.095581,0.33133 0.026698,0.42223 0.021643,0.49093 l -0.078928,0.53496 c 0.0088,0.17026 -0.067145,0.25164 -0.1286235,0.26894 l -0.2514002,0.14324 c -0.08389,0.04 -0.1326395,0.11929 -0.1958587,0.21924 -0.070987,0.19662 -0.3039532,0.35993 -0.5586975,0.39365 l -0.037648,-0.18902 0.1106685,-0.0441 0.077986,-0.0202 0.088554,-0.027 0.056044,-0.0168 0.111084,-0.0468 0.038002,-0.0322 -0.010231,-0.0263 -0.1403165,0.0351 -0.1534713,0.0497 -0.1206059,0.0471 -0.066275,0.0249 z"
       id="path2463"
       inkscape:connector-curvature="0"
       sodipodi:nodetypes="cccccccscccccccccccccccccccccccccc" />
    <text
       xml:space="preserve"
       style="font-style:normal;font-weight:normal;font-size:10.58333397px;line-height:1.25;font-family:sans-serif;letter-spacing:0px;word-spacing:0px;fill:#000000;fill-opacity:1;stroke:none;stroke-width:0.26458335"
       x="16.536461"
       y="278.47919"
       id="text876"><tspan
         sodipodi:role="line"
         id="tspan874"
         x="16.536461"
         y="278.47919"
         style="stroke-width:0.26458335"> </tspan></text>
    <flowRoot
       xml:space="preserve"
       id="flowRoot882"
       style="font-style:normal;font-weight:normal;font-size:40px;line-height:1.25;font-family:sans-serif;letter-spacing:0px;word-spacing:0px;fill:#000000;fill-opacity:1;stroke:none"
       transform="matrix(0.26458336,0,0,0.26458336,0,244.08336)"><flowRegion
         id="flowRegion884"><rect
           id="rect886"
           width="175.35715"
           height="167.5"
           x="23.928572"
           y="13.214287" /></flowRegion><flowPara
         id="flowPara888" /></flowRoot>    <flowRoot
       xml:space="preserve"
       id="flowRoot1185"
       style="font-style:normal;font-weight:normal;font-size:40px;line-height:1.25;font-family:sans-serif;letter-spacing:0px;word-spacing:0px;fill:#000000;fill-opacity:1;stroke:none"
       transform="matrix(0.26458336,0,0,0.26458336,0,244.08336)"><flowRegion
         id="flowRegion1187"><rect
           id="rect1189"
           width="139.90613"
           height="220.71832"
           x="204.05081"
           y="6.0507126" /></flowRegion><flowPara
         id="flowPara1191" /></flowRoot>    <g
       id="g2294"
       transform="translate(2.2441858e-6,4.9851578e-6)">
      <path
         style="fill:none;stroke:#ff1000;stroke-width:0.25313848px;stroke-linecap:round;stroke-linejoin:miter;stroke-opacity:1"
         d="m 4.8823886,291.51244 c 0.2845251,0.32366 0.9329914,0.68393 1.6140121,0.50833"
         id="path2414"
         inkscape:connector-curvature="0"
         sodipodi:nodetypes="cc" />
      <rect
         ry="0.82295233"
         transform="matrix(0.9638434,-0.26646932,0.28076228,0.95977734,0,0)"
         y="275.69437"
         x="-79.596123"
         height="11.662113"
         width="7.8060274"
         id="rect866"
         style="fill:#000000;fill-opacity:0;stroke:#00ffff;stroke-width:0.26157284;stroke-linecap:round;stroke-linejoin:round;stroke-miterlimit:100;stroke-dasharray:none;paint-order:stroke markers fill" />
      <g
         id="g2317"
         transform="translate(-2.6360145e-6)">
        <g
           id="g4945"
           transform="matrix(1.3290384,-0.53616105,0.5537841,1.3727225,-162.81318,-104.97043)"
           style="stroke:#00ffff;stroke-width:0.2724902;stroke-miterlimit:4;stroke-dasharray:none;stroke-opacity:1;paint-order:stroke fill markers">
          <ellipse
             transform="matrix(-0.04611803,-0.998936,0.99889808,-0.04693221,0,0)"
             ry="2.0007503"
             rx="1.9209889"
             cy="-7.3130636"
             cx="-290.35117"
             id="path4916"
             style="fill:#ff0000;fill-opacity:0;stroke:#00ffff;stroke-width:0.27249023;stroke-linecap:butt;stroke-linejoin:round;stroke-miterlimit:4;stroke-dasharray:none;stroke-dashoffset:0;stroke-opacity:1;paint-order:stroke fill markers" />
        </g>
        <path
           style="fill:none;stroke:#00ffff;stroke-width:0.39687505;stroke-linecap:butt;stroke-linejoin:miter;stroke-miterlimit:4;stroke-dasharray:none;stroke-opacity:1"
           d="M 6.8725484,293.02205 5.3276887,287.68478"
           id="path4955"
           inkscape:connector-curvature="0" />
        <path
           style="fill:none;stroke:#00ffff;stroke-width:0.39687505;stroke-linecap:butt;stroke-linejoin:miter;stroke-miterlimit:4;stroke-dasharray:none;stroke-opacity:1"
           d="m 4.6882593,292.8059 1.5632351,-2.01124 2.3667285,0.84831"
           id="path4957"
           inkscape:connector-curvature="0"
           sodipodi:nodetypes="ccc" />
      </g>
      <ellipse
         style="fill:#ff0000;fill-opacity:1;stroke:none;stroke-width:0.08268034;stroke-linecap:round;stroke-linejoin:round;stroke-miterlimit:4;stroke-dasharray:none;stroke-dashoffset:0;stroke-opacity:1;paint-order:stroke fill markers"
         id="path2410"
         cx="-21.550108"
         cy="286.15247"
         rx="0.35471871"
         ry="0.35271379"
         transform="matrix(0.97760408,-0.21045253,0.0902267,0.99592125,0,0)" />
      <path
         style="fill:#000000;fill-opacity:1;stroke:#ffffff;stroke-width:0.02645834;stroke-linecap:butt;stroke-linejoin:miter;stroke-miterlimit:4;stroke-dasharray:none;stroke-opacity:1"
         d="m 6.2539131,289.29162 0.1467612,0.002 0.016537,-0.0599 0.095085,-0.031 0.083716,-0.061 -0.013436,-0.0661 0.074414,-0.009 -0.015502,-0.0537 0.056844,-0.009 -0.00723,-0.0372 0.028939,-0.001 0.00414,-0.031 0.019637,-0.004 -0.0031,-0.0176 0.025839,-0.0114 -0.00827,-0.0279 0.028939,-0.005 -0.026872,-0.11886 0.076481,0.0279 0.1488281,-0.1447 c 0,0 0.050643,-0.0393 0.05271,-0.0424 0.00206,-0.003 0.12299,-0.0558 0.12299,-0.0558 l 0.07338,-0.0351 0.072347,-0.008 0.00827,0.0165 0.044442,0.001 0.00723,0.0196 0.026872,0.006 0.019637,0.0413 0.068213,-0.009 0.028939,0.0475 0.031006,0.0124 0.07028,-0.0186 0.00827,0.031 c 0,0 0.00103,0.0248 -0.0031,0.0269 -0.00414,0.002 -0.026872,0.0351 -0.026872,0.0351 l -0.027905,0.0258 -0.016536,0.0734 0.028939,0.0403 0.040307,0.0248 0.034107,0.0279 0.00206,0.0475 -0.015502,0.032 c 0,0 -0.051676,0.12609 -0.051676,0.13333 0,0.007 0.029972,0.0372 0.029972,0.0372 l 0.017571,0.0196 c 0,0 0.011369,0.004 0.012401,0.0341 0.00103,0.03 -0.044442,0.0693 -0.044442,0.0693 0,0 -0.022738,0.0269 -0.036174,0.0424 -0.013435,0.0155 -0.07028,0.10232 -0.07028,0.10232 l -0.021704,0.0568 0.051676,-0.0486 0.037207,-0.0176 0.029972,-0.007 0.010335,0.0331 -0.028939,0.0682 -0.012401,0.03 -0.081649,0.14366 -0.066146,0.0238 -0.00103,0.0269 -0.089917,0.0114 -0.02377,0.031 -0.05581,0.0165 -0.057878,0.005 -0.05271,-0.0176 c 0,0 -0.027905,-10e-4 -0.031006,0.004 -0.0031,0.005 0.044441,0.10335 0.044441,0.10335 l -0.037207,0.007 0.021704,0.0899 -0.038241,0.0145 -0.028939,0.005 -0.1043863,-0.0682 -0.071314,0.10749 -0.079582,-0.0599 -0.017571,0.0165 c 0,0 -0.00414,0.0476 -0.00206,0.0558 0.00206,0.008 -0.00103,0.0765 -0.017571,0.0775 -0.016536,0.001 -0.08785,-0.062 -0.08785,-0.062 0,0 -0.050643,-0.0548 -0.03824,-0.063 0.012401,-0.008 0.034106,-0.0351 0.029972,-0.0403 -0.00414,-0.005 -0.059945,0.008 -0.059945,0.008 l -0.025839,0.093 -0.051677,0.0207 -0.041341,-0.0641 0.025839,-0.0641 c 0,0 -0.03514,-0.032 -0.040307,-0.032 -0.00517,1e-5 -0.02171,-0.0537 -0.02171,-0.0537 l 0.018603,-0.0517 -0.029972,-0.0165 -0.054777,-0.0145 -0.026872,0.0372 c 0,0 -0.010335,0.0413 -0.019637,0.0424 -0.0093,10e-4 -0.054777,-0.1509 -0.054777,-0.1509 l -0.031006,-0.0114 -0.039274,-0.0444 0.020672,-0.0403 c 0,0 -0.097152,-0.0496 -0.099219,-0.0537 -0.00206,-0.004 -0.00414,-0.0444 -0.00414,-0.0444 l 0.020672,-0.0258 0.076481,0.0227 -0.021704,-0.0631 0.082682,-0.007 -0.028939,-0.03 -0.033073,-0.0527 -0.00827,-0.0496 z"
         id="path2453"
         inkscape:connector-curvature="0" />
      <path
         style="fill:#ffffff;fill-opacity:1;stroke:#000000;stroke-width:0.02645834;stroke-linecap:round;stroke-linejoin:round;stroke-miterlimit:4;stroke-dasharray:none;stroke-opacity:1"
         d="m 6.7117361,289.22272 c -0.043386,-0.006 -0.044434,0.0106 -0.063046,0.0382 -0.011439,0.0389 -0.028106,0.0699 0.044441,0.14159 0.1298801,0.0916 0.3641467,0.0768 0.498161,-0.11266 0.060978,-0.0985 0.04961,-0.18362 -0.049609,-0.22427 l -0.100252,-0.0124 c 0.033762,0.22497 -0.1567514,0.33523 -0.329695,0.16953 z"
         id="path2457"
         inkscape:connector-curvature="0"
         sodipodi:nodetypes="cccccccc" />
    </g>
    <ellipse
       style="fill:#ffffff;fill-rule:evenodd;stroke-width:0.25166804;fill-opacity:1"
       id="path2459"
       cx="6.955471"
       cy="289.17548"
       rx="0.045903366"
       ry="0.051602989" />
  </g>
</svg>
